test_regress/t/t_fourstate_demo2.out.vcd
$version Generated by VerilatedVcd $end
$timescale 1ps $end
 $scope module tb_counter $end
  $var wire 1 " clk $end
  $var wire 1 $ rstn $end
  $var wire 4 & out [3:0] $end
  $scope module c $end
   $var wire 1 " clk $end
   $var wire 1 $ rstn $end
   $var wire 4 & out [3:0] $end
  $upscope $end
 $upscope $end
$enddefinitions $end


#0
x"
x$
bzzzz &
#20
1$
#40
1"
bxxxx &
#45
0"
#50
1"
#55
0"
#60
1"
#65
0"
#70
1"
#75
0"
#80
1"
#85
0"
0$
#90
1"
b0000 &
#95
0"
1$
#100
1"
b0001 &
#105
0"
#110
1"
b0010 &
#115
0"
#120
1"
b0011 &
#125
0"
#130
1"
b0100 &
#135
0"
#140
1"
b0101 &
#145
0"
#150
1"
b0110 &
#155
0"
#160
1"
b0111 &
#165
0"
#170
1"
b1000 &
#175
0"
#180
1"
b1001 &
#185
0"
#190
1"
b1010 &
