test_regress/t/t_forceable_net_trace.vcd
$version Generated by VerilatedVcd $end
$date Sun Dec 19 19:39:17 2021 $end
$timescale 1ps $end

 $scope module top $end
  $var wire  1 # clk $end
  $var wire 32 % cyc [31:0] $end
  $var wire  1 $ rst $end
  $scope module t $end
   $var wire  1 # clk $end
   $var wire 32 % cyc [31:0] $end
   $var wire  1 & net_1 $end
   $var wire  8 ' net_8 [7:0] $end
   $var wire  1 $ rst $end
  $upscope $end
 $upscope $end
$enddefinitions $end


#0
0#
1$
b00000000000000000000000000000000 %
1&
b11111111 '
#5
1#
0$
#10
0#
#15
1#
b00000000000000000000000000000001 %
0&
#20
0#
#25
1#
b00000000000000000000000000000010 %
1&
b11111110 '
#30
0#
#35
1#
b00000000000000000000000000000011 %
0&
#40
0#
#45
1#
b00000000000000000000000000000100 %
b01011111 '
#50
0#
#55
1#
b00000000000000000000000000000101 %
1&
#60
0#
#65
1#
b00000000000000000000000000000110 %
b11110101 '
#70
0#
#75
1#
b00000000000000000000000000000111 %
#80
0#
#85
1#
b00000000000000000000000000001000 %
#90
0#
#95
1#
b00000000000000000000000000001001 %
0&
b11111011 '
#100
0#
#105
1#
b00000000000000000000000000001010 %
1&
b01011010 '
#110
0#
#115
1#
b00000000000000000000000000001011 %
#120
0#
#125
1#
b00000000000000000000000000001100 %
0&
b10100101 '
#130
0#
#135
1#
b00000000000000000000000000001101 %
#140
0#
#145
1#
b00000000000000000000000000001110 %
1&
b11111000 '
#150
0#
#155
1#
b00000000000000000000000000001111 %
0&
#160
0#
#165
1#
b00000000000000000000000000010000 %
1&
b11110111 '
#170
0#
#175
1#
b00000000000000000000000000010001 %
0&
#180
0#
#185
1#
b00000000000000000000000000010010 %
1&
b11110110 '
#190
0#
#195
1#
b00000000000000000000000000010011 %
0&
#200
0#
#205
1#
b00000000000000000000000000010100 %
1&
b11110101 '
#210
0#
#215
1#
b00000000000000000000000000010101 %
0&
#220
0#
#225
1#
b00000000000000000000000000010110 %
1&
b11110100 '
#230
0#
#235
1#
b00000000000000000000000000010111 %
0&
#240
0#
#245
1#
b00000000000000000000000000011000 %
1&
b11110011 '
#250
0#
#255
1#
b00000000000000000000000000011001 %
0&
#260
0#
#265
1#
b00000000000000000000000000011010 %
1&
b11110010 '
#270
0#
#275
1#
b00000000000000000000000000011011 %
0&
#280
0#
#285
1#
b00000000000000000000000000011100 %
1&
b11110001 '
#290
0#
#295
1#
b00000000000000000000000000011101 %
0&
#300
0#
#305
1#
b00000000000000000000000000011110 %
1&
b11110000 '
#310
0#
#315
1#
b00000000000000000000000000011111 %
0&
